<svg xmlns="http://www.w3.org/2000/svg" width="1140" height="7158" viewBox="0 0 1140 7158">
  <g id="bg-line" transform="translate(0 0.5)">
    <path id="Line" d="M.5,0V7157" fill="none" stroke="#f2f7f9" stroke-linecap="square" stroke-miterlimit="10" stroke-width="1"/>
    <path id="Line_Copy" data-name="Line Copy" d="M.5,0V7157" transform="translate(1139)" fill="none" stroke="#f2f7f9" stroke-linecap="square" stroke-miterlimit="10" stroke-width="1"/>
    <path id="Line_Copy_2" data-name="Line Copy 2" d="M.5,0V7157" transform="translate(760)" fill="none" stroke="#f2f7f9" stroke-linecap="square" stroke-miterlimit="10" stroke-width="1"/>
    <path id="Line_Copy_6" data-name="Line Copy 6" d="M.5,0V7157" transform="translate(949)" fill="none" stroke="#f2f7f9" stroke-linecap="square" stroke-miterlimit="10" stroke-width="1"/>
    <path id="Line_Copy_3" data-name="Line Copy 3" d="M.5,0V7157" transform="translate(570)" fill="none" stroke="#f2f7f9" stroke-linecap="square" stroke-miterlimit="10" stroke-width="1"/>
    <path id="Line_Copy_4" data-name="Line Copy 4" d="M.5,0V7157" transform="translate(379)" fill="none" stroke="#f2f7f9" stroke-linecap="square" stroke-miterlimit="10" stroke-width="1"/>
    <path id="Line_Copy_5" data-name="Line Copy 5" d="M.5,0V7157" transform="translate(190)" fill="none" stroke="#f2f7f9" stroke-linecap="square" stroke-miterlimit="10" stroke-width="1"/>
  </g>
</svg>
